{
    "module": "segdepth_hairmatting",
    "comment":
    [
        "QCOM performanceMode(BALANCED , HIGH_PERFORMANCE , POWER_SAVER , SYSTEM_SETTINGS , SUSTAINED_HIGH_PERFORMANCE ,",
        "BURST , LOW_POWER_SAVER , HIGH_POWER_SAVER , LOW_BALANCED)",

        "QCOM runtime(CPU_FLOAT32, GPU_FLOAT32_16_HYBRID, GPU_FLOAT16, DSP_FIXED8_TF, AIP_FIXED8_TF)",

        "MTK performanceMode(kLowPower , kFastSingleAnswer , kSustainedSpeed)",
        "WinTFLite runtime(UNKNOWN)",
        "WinTFLite performanceMode(UNKNOWN)",
        "MTK runtime(FLOAT, UINT8)",

        "ImageWidth/ImageHeight(576, 768)",
        "ROIMode(inner, outer)"
    ],
    "product": "8475",
    "VENDOR": "QCOM",
    "BrandModels": "BrandA_oplus",
    "SNPE_VERSION": "1.61.1.3358",
    "param":
    [
        {
            "product_name": "8475",
            "SegMode": "DSP",
            "DepthMode": "DSP",
            "SegResizeOnCpu":true,
            "DepthResizeOnCpu":true,
            "SegPerformanceMode": "BALANCED",
            "DepthPerformanceMode": "BALANCED",
            "OutputMask_WH":"864,1152",
            "SegModel_In_WHC":"432,576,3",
            "SegModel_Out_WHC":"432,576,3",
            "DepthModel_In_WHC":"432,576,3",
            "DepthModel_Out_WHC":"432,576,3",
            "SegEnable": true,
            "DepthEnable": true,
            "MattingEnable": true,
            "HairMattingRuntime": "DSP_FIXED8_TF",
            "HairMattingPerformanceMode": "BALANCED",
            "HairMattingImageWidth": 576,
            "HairMattingImageHeight": 768,
            "HairMattingROIMode": "inner",
            "NeonPerformanceMode":0,
            "BokehLutPerformanceMode":0
        },
        {
            "product_name": "8250",
            "SegMode": "DSP",
            "DepthMode": "DSP",
            "SegPerformanceMode": "POWER_SAVER",
            "DepthPerformanceMode": "POWER_SAVER",
            "SegEnable": true,
            "DepthEnable": true,
            "MattingEnable": true,
            "HairMattingRuntime": "DSP_FIXED8_TF",
            "HairMattingPerformanceMode": "POWER_SAVER",
            "HairMattingImageWidth": 576,
            "HairMattingImageHeight": 768,
            "HairMattingROIMode": "inner"
        },
        {
            "product_name": "7125",
            "SegMode": "DSP",
            "DepthMode": "DSP",
            "SegPerformanceMode": "POWER_SAVER",
            "DepthPerformanceMode": "POWER_SAVER",
            "SegEnable": true,
            "DepthEnable": false,
            "MattingEnable": false
        },
        {
            "product_name": "5G-B",
            "SegMode": "DSP",
            "DepthMode": "DSP",
            "SegPerformanceMode": "kSustainedSpeed",
            "DepthPerformanceMode": "kSustainedSpeed",
            "SegEnable": true,
            "DepthEnable": false,
            "MattingEnable": false
        },
        {
            "product_name": "NEXT-D",
            "SegMode": "DSP",
            "DepthMode": "DSP",
            "SegPerformanceMode": "kSustainedSpeed",
            "DepthPerformanceMode": "kSustainedSpeed",
            "MattingPerformanceMode": "kSustainedSpeed",
            "SegEnable": true,
            "DepthEnable": false,
            "MattingEnable": false,
            "HairMattingRuntime": "DSP_FIXED8_TF",
            "HairMattingPerformanceMode": "POWER_SAVER",
            "HairMattingImageWidth": 576,
            "HairMattingImageHeight": 768,
            "HairMattingROIMode": "inner"
        },
        {
            "product_name": "NEXT-A",
            "SegMode": "DSP",
            "DepthMode": "DSP",
            "SegPerformanceMode": "kSustainedSpeed",
            "DepthPerformanceMode": "kSustainedSpeed",
            "SegEnable": true,
            "DepthEnable": false,
            "MattingEnable": false
        }
    ]
}
