[
  {
        "project":"21842",
        "name":"default",
        "product":"CPH2413",
        "device":"OP5552L1",
        "model":"CPH2413",
        "first_api_level" :"31",
        "manufacturer": "OnePlus",
        "brand": "OnePlus",
        "base_os":"OnePlus/CPH2413/OP5552L1:13/SKQ1.220617.001/S.a0fb9c+1-c:user/release-keys"
  },
  {
        "project":"21842",
        "name":"us",
        "product":"CPH2417",
        "device":"OP5552L1",
        "model":"CPH2417",
        "first_api_level" :"31",
        "manufacturer": "OnePlus",
        "brand": "OnePlus",
        "base_os":"OnePlus/CPH2417/OP5552L1:13/SKQ1.220617.001/S.a0fb9c+1-c:user/release-keys"
  },
  {
        "project":"21842",
        "name":"row",
        "product":"CPH2415",
        "device":"OP5552L1",
        "model":"CPH2415",
        "first_api_level" :"31",
        "manufacturer": "OnePlus",
        "brand": "OnePlus",
        "base_os":"OnePlus/CPH2415/OP5552L1:13/SKQ1.220617.001/S.a0fb9c+1-c:user/release-keys"
  },
  {
        "project":"21842",
        "name":"eea",
        "product":"CPH2415EEA",
        "device":"OP5552L1",
        "model":"CPH2415",
        "first_api_level" :"31",
        "manufacturer": "OnePlus",
        "brand": "OnePlus",
        "base_os":"OnePlus/CPH2415EEA/OP5552L1:13/SKQ1.220617.001/S.a0fb9c+1-c:user/release-keys"
  },
  {
        "project":"21842",
        "name":"tmo",
        "product":"CPH2419",
        "device":"OP5552L1",
        "model":"CPH2419",
        "first_api_level" :"31",
        "manufacturer": "OnePlus",
        "brand": "OnePlus",
        "base_os":"OnePlus/CPH2419/OP5552L1:13/SKQ1.220617.001/S.a0fb9c+1-c:user/release-keys"
  }
]
